…
Load instacart data

``` r
data("instacart")

range(pull(instacart, aisle_id))
```

    ## [1]   1 134

``` r
count(instacart, aisle_id, aisle)
```

    ## # A tibble: 134 x 3
    ##    aisle_id aisle                          n
    ##       <int> <chr>                      <int>
    ##  1        1 prepared soups salads       2936
    ##  2        2 specialty cheeses           3873
    ##  3        3 energy granola bars        17449
    ##  4        4 instant foods               9917
    ##  5        5 marinades meat preparation  2905
    ##  6        6 other                       1795
    ##  7        7 packaged meat               1526
    ##  8        8 bakery desserts             1501
    ##  9        9 pasta sauce                 9736
    ## 10       10 kitchen supplies             448
    ## # ... with 124 more rows
…
